Tipologia y Ciclo de vida de los Datos. Practica 2
…
3.1 PersonasTicket

Antes de eliminar la variable Ticket nos va a servir para conocer el precio unitario que han pagado los pasajeros, ya que la variable Fare es la tarifa pagada en el ticket, pero dentro del mismo ticket pueden estar incluidas varias personas. Inicialmente vamos a obtener el nmero de personas que estn incluidas en un mismo ticket.

nrow(table(data$Ticket, data$Fare))

## [1] 681

length(unique(data$Ticket))

## [1] 681

data %>% group_by(Ticket, Fare) %>% filter(row_number() == 1)

## # A tibble: 682 x 12
## # Groups:   Ticket, Fare [682]
##    PassengerId Survived Pclass Name  Sex     Age SibSp Parch Ticket  Fare Cabin
##          <int>    <int>  <int> <chr> <chr> <dbl> <int> <int> <chr>  <dbl> <chr>
##  1           1        0      3 Brau male     22     1     0 A/5 2  7.25 <NA> 
##  2           2        1      1 Cumi fema    38     1     0 PC 17 71.3  C85  
##  3           3        1      3 Heik fema    26     0     0 STON/  7.92 <NA> 
##  4           4        1      1 Futr fema    35     1     0 113803 53.1  C123 
##  5           5        0      3 Alle male     35     0     0 373450  8.05 <NA> 
##  6           6        0      3 Mora male     NA     0     0 330877  8.46 <NA> 
##  7           7        0      1 McCa male     54     0     0 17463  51.9  E46  
##  8           8        0      3 Pals male      2     3     1 349909 21.1  <NA> 
##  9           9        1      3 John fema    27     0     2 347742 11.1  <NA> 
## 10          10        1      2 Nass fema    14     1     0 237736 30.1  <NA> 
## #  with 672 more rows, and 1 more variable: Embarked <chr>
…
